INDEX VERSION 1.4+C:\Users\ELCOT\Desktop\saravanan_shaw151_repository_hcl_training\Week7 Graded Assignment\.metadata\.plugins\org.eclipse.wst.jsdt.core\indexes
4112608240.index
1048335229.index
2017538287.index
1741687412.index
3220755414.index
2463499611.index
3746162795.index
