127.0.0.1 - - [30/Dec/2021:23:23:23 +0530] "GET / HTTP/1.1" 404 751
0:0:0:0:0:0:0:1 - - [30/Dec/2021:23:23:35 +0530] "GET /Week8_Graded_Assignment/ HTTP/1.1" 200 533
0:0:0:0:0:0:0:1 - - [30/Dec/2021:23:24:25 +0530] "POST /Week8_Graded_Assignment/register HTTP/1.1" 404 787
0:0:0:0:0:0:0:1 - - [30/Dec/2021:23:25:30 +0530] "GET /Week8_Graded_Assignment/ HTTP/1.1" 200 533
127.0.0.1 - - [30/Dec/2021:23:26:29 +0530] "GET / HTTP/1.1" 404 751
0:0:0:0:0:0:0:1 - - [30/Dec/2021:23:26:32 +0530] "GET /Week8_Graded_Assignment/ HTTP/1.1" 200 533
0:0:0:0:0:0:0:1 - - [30/Dec/2021:23:27:10 +0530] "POST /Week8_Graded_Assignment/register HTTP/1.1" 500 10151
0:0:0:0:0:0:0:1 - - [30/Dec/2021:23:28:10 +0530] "POST /Week8_Graded_Assignment/register HTTP/1.1" 500 10151
0:0:0:0:0:0:0:1 - - [30/Dec/2021:23:28:31 +0530] "GET /Week8_Graded_Assignment/login.jsp HTTP/1.1" 200 479
0:0:0:0:0:0:0:1 - - [30/Dec/2021:23:28:58 +0530] "POST /Week8_Graded_Assignment/login HTTP/1.1" 500 10151
0:0:0:0:0:0:0:1 - - [30/Dec/2021:23:29:14 +0530] "POST /Week8_Graded_Assignment/login HTTP/1.1" 500 10151
